<svg xmlns="http://www.w3.org/2000/svg" width="24" height="24" viewBox="0 0 24 24">
    <g fill="none" fill-rule="evenodd">
        <g fill="#000" fill-rule="nonzero">
            <path d="M1283.56 528c-1.425 0-2.855.543-3.937 1.625-2.164 2.164-2.164 5.71 0 7.875l3.656 3.656c.387.399 1.024.403 1.422.016.399-.387.403-1.024.016-1.422l-3.688-3.688c-1.398-1.398-1.398-3.632 0-5.03 1.399-1.4 3.633-1.4 5.032 0l4.906 4.905c1.398 1.399 1.398 3.633 0 5.032-.164.164-.348.281-.531.406-.457.313-.579.934-.266 1.39.312.458.934.579 1.39.266.286-.195.563-.406.813-.656 2.164-2.164 2.164-5.71 0-7.875l-4.875-4.875c-1.082-1.082-2.512-1.625-3.937-1.625zm5.22 8.875c-.044.008-.087.02-.126.031-.148.032-.285.094-.406.188-.21.16-.43.336-.625.531-2.164 2.164-2.164 5.71 0 7.875l4.875 4.875c2.164 2.164 5.711 2.164 7.875 0 2.164-2.164 2.164-5.71 0-7.875l-3.656-3.625c-.242-.297-.63-.434-1.004-.348-.371.086-.664.38-.75.75-.086.375.05.762.348 1.004l3.656 3.657c1.398 1.398 1.398 3.632 0 5.03-1.399 1.4-3.633 1.4-5.031 0l-4.907-4.905c-1.398-1.399-1.398-3.633 0-5.032.121-.125.27-.21.407-.312.402-.246.578-.742.418-1.188-.157-.445-.606-.718-1.075-.656z" transform="translate(-1278 -528)"/>
        </g>
    </g>
</svg>
