<svg xmlns="http://www.w3.org/2000/svg" width="32" height="32" viewBox="0 0 32 32">
    <g fill="none" fill-rule="evenodd">
        <g fill-rule="nonzero">
            <g>
                <path fill="#039BE5" d="M16 0C7.163 0 0 7.163 0 16s7.163 16 16 16 16-7.163 16-16S24.837 0 16 0z" transform="translate(-1274 -563) translate(1274 563)"/>
                <path fill="#FFF" d="M18.166 20.24h4.14l.65-4.205h-4.79v-2.3c0-1.747.57-3.296 2.205-3.296h2.626V6.768c-.461-.062-1.437-.199-3.282-.199-3.85 0-6.108 2.034-6.108 6.667v2.799H9.648v4.206h3.959v11.561C14.39 31.92 15.185 32 16 32c.737 0 1.456-.067 2.166-.163V20.24z" transform="translate(-1274 -563) translate(1274 563)"/>
            </g>
        </g>
    </g>
</svg>
