<svg xmlns="http://www.w3.org/2000/svg" width="104" height="104" viewBox="0 0 104 104">
    <g fill="none" fill-rule="evenodd">
        <g fill-rule="nonzero">
            <g>
                <g>
                    <path fill="#29B6F6" d="M52 0C23.281 0 0 23.281 0 52s23.281 52 52 52 52-23.281 52-52S80.719 0 52 0z" transform="translate(-1049 -6236) translate(392 6185) translate(657 51)"/>
                    <path fill="#FFF" d="M77.87 28.62L68.195 78.71S67.778 81 64.977 81c-1.488 0-2.255-.718-2.255-.718L41.761 62.648l-10.256-5.24-13.162-3.55S16 53.174 16 51.209c0-1.637 2.41-2.417 2.41-2.417l55.067-22.178c-.003-.003 1.681-.616 2.908-.613.755 0 1.615.327 1.615 1.31 0 .654-.13 1.31-.13 1.31z" transform="translate(-1049 -6236) translate(392 6185) translate(657 51)"/>
                    <path fill="#B0BEC5" d="M49 68.695l-8.58 8.985s-.373.306-.872.32c-.172.005-.358-.025-.548-.115L41.414 62 49 68.695z" transform="translate(-1049 -6236) translate(392 6185) translate(657 51)"/>
                    <path fill="#CFD8DC" d="M66.736 37.503c-.434-.565-1.237-.668-1.802-.239L31 57.555s5.416 15.14 6.241 17.76C38.07 77.938 38.733 78 38.733 78l2.478-15.327 25.284-23.371c.565-.43.67-1.233.241-1.799z" transform="translate(-1049 -6236) translate(392 6185) translate(657 51)"/>
                </g>
            </g>
        </g>
    </g>
</svg>
