<svg width="24" height="24" viewBox="0 0 24 24" fill="none" xmlns="http://www.w3.org/2000/svg">
<path d="M11.6667 0C11.1144 0 10.6667 0.447715 10.6667 1V9.66667C10.6667 10.219 10.219 10.6667 9.66667 10.6667H1C0.447717 10.6667 0 11.1144 0 11.6667V12.3333C0 12.8856 0.447715 13.3333 1 13.3333H9.66667C10.219 13.3333 10.6667 13.781 10.6667 14.3333V23C10.6667 23.5523 11.1144 24 11.6667 24H12.3333C12.8856 24 13.3333 23.5523 13.3333 23V14.3333C13.3333 13.781 13.781 13.3333 14.3333 13.3333H23C23.5523 13.3333 24 12.8856 24 12.3333V11.6667C24 11.1144 23.5523 10.6667 23 10.6667H14.3333C13.781 10.6667 13.3333 10.219 13.3333 9.66667V1C13.3333 0.447717 12.8856 0 12.3333 0H11.6667Z" fill="black"/>
</svg>
