<svg width="15" height="16" viewBox="0 0 15 16" fill="none" xmlns="http://www.w3.org/2000/svg">
<path d="M0.666748 0.888889V2.66667C0.666748 3.15625 1.06605 3.55556 1.55564 3.55556C2.04522 3.55556 2.44453 3.15625 2.44453 2.66667V1.77778H6.88897V14.2222H6.00008C5.5105 14.2222 5.11119 14.6215 5.11119 15.1111C5.11119 15.6007 5.5105 16 6.00008 16H9.55564C10.0452 16 10.4445 15.6007 10.4445 15.1111C10.4445 14.6215 10.0452 14.2222 9.55564 14.2222H8.66675V1.77778H13.1112V2.66667C13.1112 3.15625 13.5105 3.55556 14.0001 3.55556C14.4897 3.55556 14.889 3.15625 14.889 2.66667V0.888889C14.889 0.399306 14.4897 0 14.0001 0H1.55564C1.06605 0 0.666748 0.399306 0.666748 0.888889Z" fill="black"/>
</svg>
